Course,Icon,Unit,Unit name,Assignment type short,Assignment type name,Title,Week used,Done,Description,,
All,,U00,Welcome/setup,ALL!!,,Syllabus overview - Beginning of semester (Spring 2024),1,0,,,
All,,U00,Welcome/setup,ALL!!,,Pre-test,1,0,,,
All,,U00,Welcome/setup,ALL!!,,Avatar maker,1,0,,,
CS200,🔎,U00,Welcome/setup,CIN,Concept Intro,,1,0.5,"Add questions in READING, quiz on Canvas",,
CS200,🔎,U01,Exploring software,CIN,Concept Intro,,1,0.5,"Add questions in READING, quiz on Canvas",,
CS235,🔎,U00,Welcome/setup,CIN,Concept Intro,,1,0.5,,,
CS235,🔎,U01,Exploring software design,CIN,Concept Intro,,1,0.5,,,
CS235,🔎,U02,CS 200 review: Basics,CIN,Concept Intro,,1,0.5,,,
CS250,🔎,U00,Welcome/setup,CIN,Concept Intro,,1,0.5,,,
CS250,🔎,U01,Exploring data,CIN,Concept Intro,,1,0.5,,,
CS200,🏋️,U01,Exploring software,EXE.D,Debugging,Debugging A,1,0,,,
CS235,🏋️,U02,CS 200 review: Basics,EXE.D,Debugging,Debugging A,1,0,,,
CS250,🏋️,U02,CS 200 review: Basics,EXE.D,Debugging,Debugging A,1,0,,,
CS200,🏋️,U01,Exploring software,EXE.N,Nonogram,Nonogram A,1,0,,,
CS200,🧑‍🔬,U00,Welcome/setup,LAB,Lab,Set up,1,0.5,"Code, GitLab, Documentation",,
CS200,🧑‍🔬,U01,Exploring software,LAB,Lab,,1,0.5,"Code, GitLab, Documentation",,
CS235,🧑‍🔬,U00,Welcome/setup,LAB,Lab,,1,0.5,,,
CS235,🧑‍🔬,U01,Exploring software design,LAB,Lab,,1,0.5,,,
CS235,🧑‍🔬,U02,CS 200 review: Basics,LAB,Lab,,1,0.5,,,
CS250,🧑‍🔬,U00,Welcome/setup,LAB,Lab,,1,0.5,,,
CS250,🧑‍🔬,U01,Exploring data,LAB,Lab,,1,0.5,,,
CS200,📽️,U00,Welcome/setup,PRES,Presentation,Set up,1,0,,,
CS200,📽️,U01,Exploring software,PRES,Presentation,,1,0,,,
CS235,📽️,U00,Welcome/setup,PRES,Presentation,,1,0,,,
CS235,📽️,U01,Exploring software design,PRES,Presentation,,1,0,,,
CS235,📽️,U02,CS 200 review: Basics,PRES,Presentation,,1,0.5,,,
CS250,📽️,U00,Welcome/setup,PRES,Presentation,,1,0,,,
CS250,📽️,U01,Exploring data,PRES,Presentation,,1,0,,,
CS200,📖️,U00,Welcome/setup,READ,Reading,Set up,1,0.5,,,
CS200,📖️,U01,Exploring software,READ,Reading,,1,0.5,,,
CS235,📖️,U00,Welcome/setup,READ,Reading,,1,0.5,,,
CS235,📖️,U01,Exploring software design,READ,Reading,,1,0.5,,,
CS235,📖️,U02,CS 200 review: Basics,READ,Reading,,1,0.5,CS235/250 same “single program” for exercises?,,
CS250,📖️,U00,Welcome/setup,READ,Reading,,1,0.5,,,
CS250,📖️,U01,Exploring data,READ,Reading,,1,0.5,,,
All,👋,U00,Welcome/setup,SUP,Status Update,Introductions!,1,0,,,
CS200,🧑‍🏫,U01,Exploring software,SUP,Status Update,,1,1,,,
CS235,🧑‍🏫,U02,CS 200 review: Basics,SUP,Status Update,,1,0,,,
CS235,🧑‍🏫,U02,CS 200 review: Basics,SUP,Status Update,,1,0,,,
CS200,🧠,U01,Exploring software,TEC,Tech Literacy,?,1,0,,,
CS235,🧠,U02,CS 200 review: Basics,TEC,Tech Literacy,?,1,0,,,
CS250,🧠,U02,CS 200 review: Basics,TEC,Tech Literacy,?,1,0,,,READING
CS200,🔎,U02,Command line,CIN,Concept Intro,,2,0.5,"Add questions in READING, quiz on Canvas",,
CS200,🔎,U03,C++ basics,CIN,Concept Intro,,2,0.5,"Add questions in READING, quiz on Canvas",,
CS235,🔎,U03,CS 200 review: Functions and classes,CIN,Concept Intro,,2,0.5,,,
CS235,🔎,U04,Debugging and testing,CIN,Concept Intro,,2,0.5,,,
CS235,🔎,U05,Algorithm efficiency,CIN,Concept Intro,,2,0.5,,,
CS200,🏋️,U03,C++ basics,EXE.D,Debugging,Debugging B,2,0,,,
CS235,🏋️,U05,Algorithm efficiency,EXE.D,Debugging,Debugging B,2,0,,,
CS250,🏋️,U05,Algorithm efficiency,EXE.D,Debugging,Debugging B,2,0,,,
CS200,🏋️,U03,C++ basics,EXE.N,Nonogram,Nonogram B,2,0,,,
CS200,🧑‍🔬,U02,Command line,LAB,Lab,,2,0.5,"Code, GitLab, Documentation",,
CS200,🧑‍🔬,U03,C++ basics,LAB,Lab,,2,0.5,"Code, GitLab, Documentation",,
CS235,🧑‍🔬,U03,CS 200 review: Functions and classes,LAB,Lab,,2,0.5,,,
CS235,🧑‍🔬,U04,Debugging and testing,LAB,Lab,,2,0.5,,,
CS235,🧑‍🔬,U05,Algorithm efficiency,LAB,Lab,,2,0.5,,,
CS200,📽️,U02,Command line,PRES,Presentation,,2,0,,,
CS200,📽️,U03,C++ basics,PRES,Presentation,,2,0.5,,,
CS235,📽️,U03,CS 200 review: Functions and classes,PRES,Presentation,,2,0.5,,,
CS235,📽️,U04,Debugging and testing,PRES,Presentation,,2,0.5,,,
CS235,📽️,U05,Algorithm efficiency,PRES,Presentation,,2,0.5,,,
CS200,📖️,U02,Command line,READ,Reading,,2,0.5,,,
CS200,📖️,U03,C++ basics,READ,Reading,,2,0.5,,,
CS235,📖️,U03,CS 200 review: Functions and classes,READ,Reading,,2,0.5,CS235/250 same “single program” for exercises?,,
CS235,📖️,U04,Debugging and testing,READ,Reading,,2,0.5,CS235/250 same “single program” for exercises?,,
CS235,📖️,U05,Algorithm efficiency,READ,Reading,,2,0.5,CS235/250 same “single program” for exercises?,,
CS200,🧑‍🏫,U03,C++ basics,SUP,Status Update,,2,1,,,
CS235,🧑‍🏫,U05,Algorithm efficiency,SUP,Status Update,,2,0,,,
CS235,🧑‍🏫,U05,Algorithm efficiency,SUP,Status Update,,2,0,,,
CS200,🧠,U03,C++ basics,TEC,Tech Literacy,?,2,0,,,
CS235,🧠,U05,Algorithm efficiency,TEC,Tech Literacy,?,2,0,,,SUP
CS250,🧠,U05,Algorithm efficiency,TEC,Tech Literacy,?,2,0,,,
CS200,🔎,U04,Control flow,CIN,Concept Intro,,3,0.5,"Add questions in READING, quiz on Canvas",,
CS235,🔎,U06,CS 200 review: Pointers,CIN,Concept Intro,,3,0.5,,,
CS235,🔎,U07,Standard Template Library,CIN,Concept Intro,,3,0.5,,,
CS200,🏋️,U04,Control flow,EXE.D,Debugging,Debugging C,3,0,,,
CS235,🏋️,U07,Standard Template Library,EXE.D,Debugging,Debugging C,3,0,,,
CS250,🏋️,U07,Standard Template Library,EXE.D,Debugging,Debugging C,3,0,,,
CS200,🏋️,U04,Control flow,EXE.N,Nonogram,Nonogram C,3,0,,,
CS200,🧑‍🔬,U04,Control flow,LAB,Lab,,3,0.5,"Code, GitLab, Documentation",,
CS235,🧑‍🔬,U06,CS 200 review: Pointers,LAB,Lab,,3,0.5,,,
CS235,🧑‍🔬,U07,Standard Template Library,LAB,Lab,,3,0.5,,,
CS200,📽️,U04,Control flow,PRES,Presentation,,3,0.5,,,
CS235,📽️,U06,CS 200 review: Pointers,PRES,Presentation,,3,0.5,,,
CS235,📽️,U07,Standard Template Library,PRES,Presentation,,3,0.5,,,
CS200,📖️,U04,Control flow,READ,Reading,,3,0.5,,,
CS235,📖️,U06,CS 200 review: Pointers,READ,Reading,,3,0.5,CS235/250 same “single program” for exercises?,,
CS235,📖️,U07,Standard Template Library,READ,Reading,,3,0.5,CS235/250 same “single program” for exercises?,,
CS200,🧑‍🏫,U04,Control flow,SUP,Status Update,,3,1,,,
CS235,🧑‍🏫,U07,Standard Template Library,SUP,Status Update,,3,0,,,
CS235,🧑‍🏫,U07,Standard Template Library,SUP,Status Update,,3,0,,,
CS200,🧠,U04,Control flow,TEC,Tech Literacy,?,3,0,,,
CS235,🧠,U07,Standard Template Library,TEC,Tech Literacy,?,3,0,,,PROJ
CS250,🧠,U07,Standard Template Library,TEC,Tech Literacy,?,3,0,,,
CS200,🔎,U05,Structs,CIN,Concept Intro,,4,0.5,"Add questions in READING, quiz on Canvas",,
CS235,🔎,U08,Recursion,CIN,Concept Intro,,4,0.5,,,
CS235,🔎,U09,Searching and sorting,CIN,Concept Intro,,4,0.5,,,
CS200,🏋️,U05,Structs,EXE.D,Debugging,Debugging D,4,0,,,
CS235,🏋️,U09,Searching and sorting,EXE.D,Debugging,Debugging D,4,0,,,
CS250,🏋️,U09,Searching and sorting,EXE.D,Debugging,Debugging D,4,0,,,
CS200,🏋️,U05,Structs,EXE.N,Nonogram,Nonogram D,4,0,,,
CS200,🧑‍🔬,U05,Structs,LAB,Lab,,4,0.5,"Code, GitLab, Documentation",,
CS235,🧑‍🔬,U08,Recursion,LAB,Lab,,4,0.5,,,
CS235,🧑‍🔬,U09,Searching and sorting,LAB,Lab,,4,0.5,,,
CS200,📽️,U05,Structs,PRES,Presentation,,4,0.5,,,
CS235,📽️,U08,Recursion,PRES,Presentation,,4,0.5,,,
CS235,📽️,U09,Searching and sorting,PRES,Presentation,,4,0.5,,,
CS200,📖️,U05,Structs,READ,Reading,,4,0.5,,,
CS235,📖️,U08,Recursion,READ,Reading,,4,0.5,CS235/250 same “single program” for exercises?,,
CS235,📖️,U09,Searching and sorting,READ,Reading,,4,0.5,CS235/250 same “single program” for exercises?,,
CS200,🧑‍🏫,U05,Structs,SUP,Status Update,,4,1,,,
CS235,🧑‍🏫,U09,Searching and sorting,SUP,Status Update,,4,0,,,
CS235,🧑‍🏫,U09,Searching and sorting,SUP,Status Update,,4,0,,,
CS200,🧠,U05,Structs,TEC,Tech Literacy,?,4,0,,,
CS235,🧠,U09,Searching and sorting,TEC,Tech Literacy,?,4,0,,,MAC
CS250,🧠,U09,Searching and sorting,TEC,Tech Literacy,?,4,0,,,
CS200,🔎,U06,Functions,CIN,Concept Intro,,5,0.5,"Add questions in READING, quiz on Canvas",,
CS235,🔎,U10,Templates,CIN,Concept Intro,,5,0.5,,,
CS235,🔎,U11,Exceptions,CIN,Concept Intro,,5,0.5,,,
CS200,🏋️,U06,Functions,EXE.D,Debugging,Debugging E,5,0,,,
CS235,🏋️,U11,Exceptions,EXE.D,Debugging,Debugging E,5,0,,,
CS250,🏋️,U11,Exceptions,EXE.D,Debugging,Debugging E,5,0,,,
CS200,🏋️,U06,Functions,EXE.N,Nonogram,Nonogram E,5,0,,,
CS200,🧑‍🔬,U06,Functions,LAB,Lab,,5,0.5,"Code, GitLab, Documentation",,
CS235,🧑‍🔬,U10,Templates,LAB,Lab,,5,0.5,,,
CS235,🧑‍🔬,U11,Exceptions,LAB,Lab,,5,0.5,,,
CS200,📽️,U06,Functions,PRES,Presentation,,5,0.5,,,
CS235,📽️,U10,Templates,PRES,Presentation,,5,0.5,,,
CS235,📽️,U11,Exceptions,PRES,Presentation,,5,0.5,,,
CS200,📖️,U06,Functions,READ,Reading,,5,0.5,,,
CS235,📖️,U10,Templates,READ,Reading,,5,0.5,CS235/250 same “single program” for exercises?,,
CS235,📖️,U11,Exceptions,READ,Reading,,5,0.5,CS235/250 same “single program” for exercises?,,
CS200,🧑‍🏫,U06,Functions,SUP,Status Update,,5,1,,,
CS235,🧑‍🏫,U11,Exceptions,SUP,Status Update,,5,0,,,
CS235,🧑‍🏫,U11,Exceptions,SUP,Status Update,,5,0,,,
CS200,🧠,U06,Functions,TEC,Tech Literacy,?,5,0,,,
CS235,🧠,U11,Exceptions,TEC,Tech Literacy,?,5,0,,,
CS250,🧠,U11,Exceptions,TEC,Tech Literacy,?,5,0,,,
All,,U08,File I/O,ALL!!,,Syllabus overview - Middle of semester (Spring 2024),6,0,,,
CS200,🔎,U07,Strings,CIN,Concept Intro,,6,0.5,"Add questions in READING, quiz on Canvas",,
CS200,🔎,U08,File I/O,CIN,Concept Intro,,6,0.5,"Add questions in READING, quiz on Canvas",,
CS235,🔎,U12,Overloading functions and constructors,CIN,Concept Intro,,6,0.5,,,
CS235,🔎,U13,Default parameters,CIN,Concept Intro,,6,0.5,,,
CS250,🔎,U12,Smart fixed & dynamic array structures,CIN,Concept Intro,,6,0.5,,,
CS200,🏋️,U08,File I/O,EXE.D,Debugging,Debugging F,6,0,,,
CS235,🏋️,U13,Default parameters,EXE.D,Debugging,Debugging F,6,0,,,
CS250,🏋️,U12,Smart fixed & dynamic array structures,EXE.D,Debugging,Debugging F,6,0,,,
CS200,🏋️,U08,File I/O,EXE.N,Nonogram,Nonogram F,6,0,,,
CS200,🧑‍🔬,U07,Strings,LAB,Lab,,6,0.5,"Code, GitLab, Documentation",,
CS200,🧑‍🔬,U08,File I/O,LAB,Lab,,6,0.5,"Code, GitLab, Documentation",,
CS235,🧑‍🔬,U12,Overloading functions and constructors,LAB,Lab,,6,0.5,,,
CS235,🧑‍🔬,U13,Default parameters,LAB,Lab,,6,0.5,,,
CS250,🧑‍🔬,U12,Smart fixed & dynamic array structures,LAB,Lab,,6,0.5,,,
CS200,📽️,U07,Strings,PRES,Presentation,,6,0.5,,,
CS200,📽️,U08,File I/O,PRES,Presentation,,6,0.5,,,
CS235,📽️,U12,Overloading functions and constructors,PRES,Presentation,,6,0.5,,,
CS235,📽️,U13,Default parameters,PRES,Presentation,,6,0.5,,,
CS250,📽️,U12,Smart fixed & dynamic array structures,PRES,Presentation,,6,0.5,,,
CS200,📖️,U07,Strings,READ,Reading,,6,0.5,,,
CS200,📖️,U08,File I/O,READ,Reading,,6,0.5,,,
CS235,📖️,U12,Overloading functions and constructors,READ,Reading,,6,0.5,CS235/250 same “single program” for exercises?,,
CS235,📖️,U13,Default parameters,READ,Reading,,6,0.5,CS235/250 same “single program” for exercises?,,
CS250,📖️,U12,Smart fixed & dynamic array structures,READ,Reading,,6,0.5,CS235/250 same “single program” for exercises?,,
CS200,🧑‍🏫,U08,File I/O,SUP,Status Update,,6,1,,,
CS235,🧑‍🏫,U13,Default parameters,SUP,Status Update,,6,0,,,
CS235,🧑‍🏫,U12,Smart fixed & dynamic array structures,SUP,Status Update,,6,0,,,
CS200,🧠,U08,File I/O,TEC,Tech Literacy,?,6,0,,,LAB
CS235,🧠,U13,Default parameters,TEC,Tech Literacy,?,6,0,,,PRESENT/VIDEO
CS250,🧠,U13,Default parameters,TEC,Tech Literacy,?,6,0,,,
CS200,🔎,U09,Pointers,CIN,Concept Intro,,7,0.5,"Add questions in READING, quiz on Canvas",,
CS200,🔎,U10,Arrays and vectors,CIN,Concept Intro,,7,0.5,"Add questions in READING, quiz on Canvas",,
CS235,🔎,U14,Static members,CIN,Concept Intro,,7,0.5,,,
CS235,🔎,U15,Friends,CIN,Concept Intro,,7,0.5,,,
CS250,🔎,U13,Linked list structure,CIN,Concept Intro,,7,0.5,,,
CS250,🔎,U14,Stack and queue structures,CIN,Concept Intro,,7,0.5,,,
CS200,🏋️,U10,Arrays and vectors,EXE.D,Debugging,Debugging G,7,0,,,
CS200,🏋️,U10,Arrays and vectors,EXE.N,Nonogram,Nonogram G,7,0,,,
CS200,🧑‍🔬,U09,Pointers,LAB,Lab,,7,0.5,"Code, GitLab, Documentation",,
CS200,🧑‍🔬,U10,Arrays and vectors,LAB,Lab,,7,0.5,"Code, GitLab, Documentation",,
CS235,🧑‍🔬,U14,Static members,LAB,Lab,,7,0.5,,,
CS235,🧑‍🔬,U15,Friends,LAB,Lab,,7,0.5,,,
CS250,🧑‍🔬,U13,Linked list structure,LAB,Lab,,7,0.5,,,
CS250,🧑‍🔬,U14,Stack and queue structures,LAB,Lab,,7,0.5,,,
CS200,📽️,U09,Pointers,PRES,Presentation,,7,0.5,,,
CS200,📽️,U10,Arrays and vectors,PRES,Presentation,,7,0.5,,,
CS235,📽️,U14,Static members,PRES,Presentation,,7,0.5,,,
CS235,📽️,U15,Friends,PRES,Presentation,,7,0.5,,,
CS250,📽️,U13,Linked list structure,PRES,Presentation,,7,0.5,,,
CS250,📽️,U14,Stack and queue structures,PRES,Presentation,,7,0.5,,,
CS200,📖️,U09,Pointers,READ,Reading,,7,0.5,,,
CS200,📖️,U10,Arrays and vectors,READ,Reading,,7,0.5,,,
CS235,📖️,U14,Static members,READ,Reading,,7,0.5,CS235/250 same “single program” for exercises?,,
CS235,📖️,U15,Friends,READ,Reading,,7,0.5,CS235/250 same “single program” for exercises?,,
CS250,📖️,U13,Linked list structure,READ,Reading,,7,0.5,CS235/250 same “single program” for exercises?,,
CS250,📖️,U14,Stack and queue structures,READ,Reading,,7,0.5,CS235/250 same “single program” for exercises?,,
CS200,🧑‍🏫,U10,Arrays and vectors,SUP,Status Update,,7,1,,,
CS235,🧑‍🏫,U15,Friends,SUP,Status Update,,7,0,,,
CS200,🧠,U10,Arrays and vectors,TEC,Tech Literacy,?,7,0,,,CIN
CS200,🔎,U11,Classes,CIN,Concept Intro,,8,0.5,"Add questions in READING, quiz on Canvas",,
CS200,🔎,U12,Inheritance,CIN,Concept Intro,,8,0.5,"Add questions in READING, quiz on Canvas",,
CS235,🔎,U16,Anonymous functions,CIN,Concept Intro,,8,0.5,,,
CS235,🔎,U17,Polymorphism,CIN,Concept Intro,,8,0.5,,,
CS250,🔎,U15,Intro to trees,CIN,Concept Intro,,8,0.5,,,
CS250,🔎,U16,Binary search tree structure,CIN,Concept Intro,,8,0.5,,,
CS200,🏋️,U12,Inheritance,EXE.D,Debugging,Debugging H,8,0,,,
CS200,🏋️,U12,Inheritance,EXE.N,Nonogram,Nonogram H,8,0,,,
CS200,🧑‍🔬,U11,Classes,LAB,Lab,,8,0.5,"Code, GitLab, Documentation",,
CS200,🧑‍🔬,U12,Inheritance,LAB,Lab,,8,0.5,"Code, GitLab, Documentation",,
CS235,🧑‍🔬,U16,Anonymous functions,LAB,Lab,,8,0.5,,,
CS235,🧑‍🔬,U17,Polymorphism,LAB,Lab,,8,0.5,,,
CS250,🧑‍🔬,U15,Intro to trees,LAB,Lab,,8,0.5,,,
CS250,🧑‍🔬,U16,Binary search tree structure,LAB,Lab,,8,0.5,,,
CS200,📽️,U11,Classes,PRES,Presentation,,8,0.5,,,
CS200,📽️,U12,Inheritance,PRES,Presentation,,8,0.5,,,
CS235,📽️,U16,Anonymous functions,PRES,Presentation,,8,0.5,,,
CS235,📽️,U17,Polymorphism,PRES,Presentation,,8,0.5,,,
CS250,📽️,U15,Intro to trees,PRES,Presentation,,8,0.5,,,
CS250,📽️,U16,Binary search tree structure,PRES,Presentation,,8,0.5,,,
CS200,📖️,U11,Classes,READ,Reading,,8,0.5,,,
CS200,📖️,U12,Inheritance,READ,Reading,,8,0.5,,,
CS235,📖️,U16,Anonymous functions,READ,Reading,,8,0.5,CS235/250 same “single program” for exercises?,,
CS235,📖️,U17,Polymorphism,READ,Reading,,8,0.5,CS235/250 same “single program” for exercises?,,
CS250,📖️,U15,Intro to trees,READ,Reading,,8,0.5,CS235/250 same “single program” for exercises?,,
CS250,📖️,U16,Binary search tree structure,READ,Reading,,8,0.5,CS235/250 same “single program” for exercises?,,
CS200,🧑‍🏫,U12,Inheritance,SUP,Status Update,,8,1,,,
CS235,🧑‍🏫,U17,Polymorphism,SUP,Status Update,,8,0,,,
CS235,🧑‍🏫,U14,Stack and queue structures,SUP,Status Update,,8,0,,,
CS200,🧠,U12,Inheritance,TEC,Tech Literacy,?,8,0,,,EXE.D
CS200,🔎,U13,Searching and sorting,CIN,Concept Intro,,10,0.5,"Add questions in READING, quiz on Canvas",,
CS200,🔎,U14,Recursion,CIN,Concept Intro,,10,0.5,"Add questions in READING, quiz on Canvas",,
CS235,🔎,U18,Overloading operators,CIN,Concept Intro,,10,0.5,,,
CS235,🔎,U19,Third party libraries,CIN,Concept Intro,,10,0.5,,,
CS200,🧑‍🔬,U13,Searching and sorting,LAB,Lab,,10,0.5,"Code, GitLab, Documentation",,
CS200,🧑‍🔬,U14,Recursion,LAB,Lab,,10,0.5,"Code, GitLab, Documentation",,
CS235,🧑‍🔬,U18,Overloading operators,LAB,Lab,,10,0.5,,,
CS235,🧑‍🔬,U19,Third party libraries,LAB,Lab,,10,0.5,,,
CS200,📽️,U13,Searching and sorting,PRES,Presentation,,10,0.5,,,
CS200,📽️,U14,Recursion,PRES,Presentation,,10,0.5,,,
CS235,📽️,U18,Overloading operators,PRES,Presentation,,10,0.5,,,
CS235,📽️,U19,Third party libraries,PRES,Presentation,,10,0.5,,,
CS200,📖️,U13,Searching and sorting,READ,Reading,,10,0.5,,,
CS200,📖️,U14,Recursion,READ,Reading,,10,0.5,,,
CS235,📖️,U18,Overloading operators,READ,Reading,,10,0.5,CS235/250 same “single program” for exercises?,,
CS235,📖️,U19,Third party libraries,READ,Reading,,10,0.5,CS235/250 same “single program” for exercises?,,
CS200,🧑‍🏫,U14,Recursion,SUP,Status Update,,10,1,,,
CS235,🧑‍🏫,U19,Third party librareis,SUP,Status Update,,10,0,,,
CS235,🧑‍🏫,U16,Binary search tree structure,SUP,Status Update,,10,0,,,
CS250,🔎,U17,Hash table structure,CIN,Concept Intro,,11,0.5,,,
CS250,🧑‍🔬,U17,Hash table structure,LAB,Lab,,11,0.5,,,
CS235,📽️,U20,Semester project,PRES,Presentation,,11,0,,,
CS250,📽️,U17,Hash table structure,PRES,Presentation,,11,0.5,,,
CS200,💻,U15,Semester project,PROJ,Project,Project check in (v1),11,0,,,
CS235,💻,U20,Semester project,PROJ,Project,,11,0,,,
CS235,📖️,U20,Semester project,READ,Reading,,11,0.5,Shared repository program,,
CS250,📖️,U17,Hash table structure,READ,Reading,,11,0.5,CS235/250 same “single program” for exercises?,,
CS235,🧑‍🏫,U17,Hash table structure,SUP,Status Update,,11,0,,,
CS250,📽️,U18,Semester project,PRES,Presentation,,12,0,,,
CS250,📖️,U18,Semester project,READ,Reading,,12,0.5,Use 1 data structure in program,,
CS200,💻,U15,Semester project,PROJ,Project,Project check in (v2),13,0,,,
CS250,💻,U18,Semester project,PROJ,Project,,13,0,,,
CS200,💯,U03,C++ basics,MAC,Mastery Check,"Command line, Git, C++ basics, variables, input and output",15,0.5,,,
CS200,💯,U04,Control flow,MAC,Mastery Check,Control flow,15,0.5,,,
CS200,💯,U05,Structs,MAC,Mastery Check,Structs,15,0.5,,,
CS200,💯,U06,Functions,MAC,Mastery Check,Functions,15,0.5,,,
CS200,💯,U08,File I/O,MAC,Mastery Check,"Strings, file I/O",15,0.5,,,
CS200,💯,U09,Pointers,MAC,Mastery Check,Pointers and memory,15,0.5,,,
CS200,💯,U10,Arrays and vectors,MAC,Mastery Check,Arrays and vectors,15,0.5,,,
CS200,💯,U12,Inheritance,MAC,Mastery Check,"Classes, inheritance",15,0.5,,,
CS235,💯,U04,Debugging and testing,MAC,Mastery Check,"Debugging, testing",15,0.5,,,
CS235,💯,U07,Standard Template Library,MAC,Mastery Check,"Standard Template Library, Algorithm Efficiency",15,0.5,,,
CS235,💯,U11,Exceptions,MAC,Mastery Check,"Templates, Exceptions",15,0.5,,,
CS235,💯,U18,Overloading operators,MAC,Mastery Check,"Overloading functions, constructors, operators",15,0.5,,,
CS235,💯,U15,Friends,MAC,Mastery Check,"Friends, Static members",15,0.5,,,
CS235,💯,U17,Polymorphism,MAC,Mastery Check,Polymorphism,15,0.5,,,
CS250,💯,U13,Linked list structure,MAC,Mastery Check,"Array structures, Linked structures, Stacks and Queues",15,0.5,,,
CS250,💯,U16,Binary search tree structure,MAC,Mastery Check,Tree structures,15,0.5,,,
CS250,💯,U17,Hash table structure,MAC,Mastery Check,Hash table structure,15,0.5,,,
